# Blender v2.79 (sub 0) OBJ File: ''
# www.blender.org
mtllib untitled.mtl
o Tire_Untitled
v 1.630000 0.000000 0.000000
v 1.508343 -0.000000 0.334250
v 1.200297 -0.000000 0.512100
v 0.850000 -0.000000 0.450333
v 0.621360 -0.000000 0.177850
v 0.621360 0.000000 -0.177850
v 0.850000 0.000000 -0.450333
v 1.200297 0.000000 -0.512100
v 1.508343 0.000000 -0.334250
v 1.519930 0.588824 0.000000
v 1.406488 0.544876 0.334250
v 1.119244 0.433597 0.512100
v 0.792601 0.307055 0.450333
v 0.579401 0.224461 0.177850
v 0.579401 0.224461 -0.177850
v 0.792601 0.307055 -0.450333
v 1.119244 0.433597 -0.512100
v 1.406488 0.544876 -0.334249
v 1.204584 1.098124 0.000000
v 1.114679 1.016164 0.334250
v 0.887030 0.808635 0.512100
v 0.628158 0.572641 0.450333
v 0.459190 0.418607 0.177851
v 0.459190 0.418607 -0.177850
v 0.628158 0.572641 -0.450333
v 0.887030 0.808635 -0.512100
v 1.114679 1.016164 -0.334249
v 0.726553 1.459116 0.000000
v 0.672326 1.350213 0.334250
v 0.535018 1.074462 0.512100
v 0.378878 0.760889 0.450333
v 0.276964 0.556219 0.177851
v 0.276964 0.556219 -0.177850
v 0.378878 0.760889 -0.450333
v 0.535018 1.074462 -0.512100
v 0.672326 1.350213 -0.334249
v 0.150397 1.623047 0.000000
v 0.139172 1.501909 0.334250
v 0.110749 1.195177 0.512100
v 0.078428 0.846374 0.450333
v 0.057332 0.618709 0.177851
v 0.057332 0.618709 -0.177850
v 0.078428 0.846374 -0.450333
v 0.110749 1.195177 -0.512100
v 0.139172 1.501909 -0.334249
v -0.446071 1.567776 0.000000
v -0.412778 1.450763 0.334250
v -0.328477 1.154476 0.512100
v -0.232614 0.817552 0.450333
v -0.170043 0.597640 0.177851
v -0.170043 0.597640 -0.177850
v -0.232614 0.817552 -0.450333
v -0.328477 1.154477 -0.512100
v -0.412778 1.450763 -0.334249
v -0.982294 1.300768 0.000000
v -0.908980 1.203684 0.334250
v -0.723341 0.957858 0.512100
v -0.512239 0.678315 0.450333
v -0.374453 0.495856 0.177851
v -0.374453 0.495856 -0.177850
v -0.512239 0.678315 -0.450333
v -0.723341 0.957858 -0.512100
v -0.908980 1.203684 -0.334249
v -1.385854 0.858084 0.000000
v -1.282419 0.794040 0.334250
v -1.020513 0.631875 0.512100
v -0.722685 0.447467 0.450333
v -0.528291 0.327104 0.177851
v -0.528291 0.327104 -0.177850
v -0.722685 0.447467 -0.450333
v -1.020513 0.631875 -0.512100
v -1.282419 0.794040 -0.334249
v -1.602246 0.299512 0.000000
v -1.482661 0.277157 0.334250
v -1.179860 0.220554 0.512100
v -0.835527 0.156187 0.450333
v -0.610780 0.114175 0.177850
v -0.610780 0.114175 -0.177850
v -0.835527 0.156187 -0.450333
v -1.179860 0.220554 -0.512100
v -1.482661 0.277157 -0.334250
v -1.602246 -0.299512 -0.000000
v -1.482661 -0.277157 0.334250
v -1.179860 -0.220554 0.512100
v -0.835527 -0.156187 0.450333
v -0.610780 -0.114175 0.177850
v -0.610780 -0.114175 -0.177850
v -0.835527 -0.156187 -0.450333
v -1.179860 -0.220554 -0.512100
v -1.482661 -0.277157 -0.334250
v -1.385854 -0.858084 -0.000000
v -1.282419 -0.794040 0.334249
v -1.020513 -0.631875 0.512100
v -0.722685 -0.447467 0.450333
v -0.528291 -0.327104 0.177850
v -0.528291 -0.327104 -0.177851
v -0.722685 -0.447467 -0.450333
v -1.020513 -0.631875 -0.512100
v -1.282419 -0.794040 -0.334250
v -0.982294 -1.300768 -0.000000
v -0.908980 -1.203684 0.334249
v -0.723341 -0.957858 0.512100
v -0.512239 -0.678315 0.450333
v -0.374453 -0.495856 0.177850
v -0.374453 -0.495856 -0.177851
v -0.512239 -0.678315 -0.450333
v -0.723341 -0.957858 -0.512100
v -0.908980 -1.203684 -0.334250
v -0.446071 -1.567776 -0.000000
v -0.412778 -1.450763 0.334249
v -0.328477 -1.154477 0.512100
v -0.232614 -0.817552 0.450333
v -0.170043 -0.597640 0.177850
v -0.170043 -0.597640 -0.177851
v -0.232614 -0.817552 -0.450333
v -0.328477 -1.154476 -0.512100
v -0.412778 -1.450763 -0.334250
v 0.150397 -1.623047 -0.000000
v 0.139172 -1.501909 0.334249
v 0.110749 -1.195177 0.512100
v 0.078428 -0.846374 0.450333
v 0.057332 -0.618709 0.177850
v 0.057332 -0.618709 -0.177851
v 0.078428 -0.846374 -0.450333
v 0.110749 -1.195177 -0.512100
v 0.139172 -1.501909 -0.334250
v 0.726553 -1.459116 -0.000000
v 0.672326 -1.350213 0.334249
v 0.535018 -1.074462 0.512100
v 0.378878 -0.760889 0.450333
v 0.276964 -0.556219 0.177850
v 0.276964 -0.556219 -0.177851
v 0.378878 -0.760889 -0.450333
v 0.535018 -1.074462 -0.512100
v 0.672326 -1.350213 -0.334250
v 1.204584 -1.098124 -0.000000
v 1.114679 -1.016164 0.334249
v 0.887030 -0.808635 0.512100
v 0.628158 -0.572641 0.450333
v 0.459190 -0.418607 0.177850
v 0.459190 -0.418607 -0.177851
v 0.628158 -0.572641 -0.450333
v 0.887030 -0.808635 -0.512100
v 1.114679 -1.016164 -0.334250
v 1.519930 -0.588824 -0.000000
v 1.406488 -0.544876 0.334249
v 1.119244 -0.433597 0.512100
v 0.792601 -0.307055 0.450333
v 0.579401 -0.224461 0.177850
v 0.579401 -0.224461 -0.177850
v 0.792601 -0.307055 -0.450333
v 1.119244 -0.433597 -0.512100
v 1.406488 -0.544876 -0.334250
vt 0.058824 0.333333
vt 0.058824 0.444444
vt 0.000000 0.444444
vt 0.000000 0.333333
vt 0.058824 0.555556
vt 0.000000 0.555556
vt 0.058824 0.666667
vt 0.000000 0.666667
vt 0.117647 0.333333
vt 0.117647 0.444444
vt 0.117647 0.555556
vt 0.117647 0.666667
vt 0.176471 0.333333
vt 0.176471 0.444444
vt 0.176471 0.555556
vt 0.176471 0.666667
vt 0.235294 0.333333
vt 0.235294 0.444444
vt 0.235294 0.555556
vt 0.235294 0.666667
vt 0.294118 0.333333
vt 0.294118 0.444444
vt 0.294118 0.555556
vt 0.294118 0.666667
vt 0.352941 0.333333
vt 0.352941 0.444444
vt 0.352941 0.555556
vt 0.352941 0.666667
vt 0.411765 0.333333
vt 0.411765 0.444444
vt 0.411765 0.555556
vt 0.411765 0.666667
vt 0.470588 0.333333
vt 0.470588 0.444444
vt 0.470588 0.555556
vt 0.470588 0.666667
vt 0.529412 0.333333
vt 0.529412 0.444444
vt 0.529412 0.555556
vt 0.529412 0.666667
vt 0.588235 0.333333
vt 0.588235 0.444444
vt 0.588235 0.555556
vt 0.588235 0.666667
vt 0.647059 0.333333
vt 0.647059 0.444444
vt 0.647059 0.555556
vt 0.647059 0.666667
vt 0.705882 0.333333
vt 0.705882 0.444444
vt 0.705882 0.555556
vt 0.705882 0.666667
vt 0.764706 0.333333
vt 0.764706 0.444444
vt 0.764706 0.555556
vt 0.764706 0.666667
vt 0.823529 0.333333
vt 0.823529 0.444444
vt 0.823529 0.555556
vt 0.823529 0.666667
vt 0.882353 0.333333
vt 0.882353 0.444444
vt 0.882353 0.555556
vt 0.882353 0.666667
vt 0.941176 0.333333
vt 0.941176 0.444444
vt 0.941176 0.555556
vt 0.941176 0.666667
vt 1.000000 0.333333
vt 1.000000 0.444444
vt 1.000000 0.555556
vt 1.000000 0.666667
vt 0.058824 0.000000
vt 0.058824 0.111111
vt 0.000000 0.111111
vt 0.000000 0.000000
vt 0.058824 0.222222
vt 0.000000 0.222222
vt 0.058824 0.777778
vt 0.000000 0.777778
vt 0.058824 0.888889
vt 0.000000 0.888889
vt 0.058824 1.000000
vt 0.000000 1.000000
vt 0.117647 0.000000
vt 0.117647 0.111111
vt 0.117647 0.222222
vt 0.117647 0.777778
vt 0.117647 0.888889
vt 0.117647 1.000000
vt 0.176471 0.000000
vt 0.176471 0.111111
vt 0.176471 0.222222
vt 0.176471 0.777778
vt 0.176471 0.888889
vt 0.176471 1.000000
vt 0.235294 0.000000
vt 0.235294 0.111111
vt 0.235294 0.222222
vt 0.235294 0.777778
vt 0.235294 0.888889
vt 0.235294 1.000000
vt 0.294118 0.000000
vt 0.294118 0.111111
vt 0.294118 0.222222
vt 0.294118 0.777778
vt 0.294118 0.888889
vt 0.294118 1.000000
vt 0.352941 0.000000
vt 0.352941 0.111111
vt 0.352941 0.222222
vt 0.352941 0.777778
vt 0.352941 0.888889
vt 0.352941 1.000000
vt 0.411765 0.000000
vt 0.411765 0.111111
vt 0.411765 0.222222
vt 0.411765 0.777778
vt 0.411765 0.888889
vt 0.411765 1.000000
vt 0.470588 0.000000
vt 0.470588 0.111111
vt 0.470588 0.222222
vt 0.470588 0.777778
vt 0.470588 0.888889
vt 0.470588 1.000000
vt 0.529412 0.000000
vt 0.529412 0.111111
vt 0.529412 0.222222
vt 0.529412 0.777778
vt 0.529412 0.888889
vt 0.529412 1.000000
vt 0.588235 0.000000
vt 0.588235 0.111111
vt 0.588235 0.222222
vt 0.588235 0.777778
vt 0.588235 0.888889
vt 0.588235 1.000000
vt 0.647059 0.000000
vt 0.647059 0.111111
vt 0.647059 0.222222
vt 0.647059 0.777778
vt 0.647059 0.888889
vt 0.647059 1.000000
vt 0.705882 0.000000
vt 0.705882 0.111111
vt 0.705882 0.222222
vt 0.705882 0.777778
vt 0.705882 0.888889
vt 0.705882 1.000000
vt 0.764706 0.000000
vt 0.764706 0.111111
vt 0.764706 0.222222
vt 0.764706 0.777778
vt 0.764706 0.888889
vt 0.764706 1.000000
vt 0.823529 0.000000
vt 0.823529 0.111111
vt 0.823529 0.222222
vt 0.823529 0.777778
vt 0.823529 0.888889
vt 0.823529 1.000000
vt 0.882353 0.000000
vt 0.882353 0.111111
vt 0.882353 0.222222
vt 0.882353 0.777778
vt 0.882353 0.888889
vt 0.882353 1.000000
vt 0.941176 0.000000
vt 0.941176 0.111111
vt 0.941176 0.222222
vt 0.941176 0.777778
vt 0.941176 0.888889
vt 0.941176 1.000000
vt 1.000000 0.000000
vt 1.000000 0.111111
vt 1.000000 0.222222
vt 1.000000 0.777778
vt 1.000000 0.888889
vt 1.000000 1.000000
vn -0.7583 -0.1418 0.6363
vn -0.9830 -0.1837 -0.0000
vn -0.7583 -0.1418 -0.6363
vn -0.6559 -0.4061 0.6363
vn -0.8502 -0.5264 -0.0000
vn -0.6559 -0.4061 -0.6363
vn -0.4649 -0.6156 0.6363
vn -0.6026 -0.7980 -0.0000
vn -0.4649 -0.6156 -0.6363
vn -0.2111 -0.7420 0.6363
vn -0.2737 -0.9618 0.0000
vn -0.2111 -0.7420 -0.6363
vn 0.0712 -0.7682 0.6363
vn 0.0923 -0.9957 0.0000
vn 0.0712 -0.7682 -0.6363
vn 0.3439 -0.6906 0.6363
vn 0.4457 -0.8952 -0.0000
vn 0.3439 -0.6906 -0.6363
vn 0.5701 -0.5197 0.6363
vn 0.7390 -0.6737 -0.0000
vn 0.5701 -0.5197 -0.6363
vn 0.7194 -0.2787 0.6363
vn 0.9325 -0.3612 -0.0000
vn 0.7194 -0.2787 -0.6363
vn 0.7714 -0.0000 0.6363
vn 1.0000 0.0000 0.0000
vn 0.7714 0.0000 -0.6363
vn 0.7194 0.2787 0.6363
vn 0.9325 0.3612 0.0000
vn 0.7194 0.2787 -0.6363
vn 0.5701 0.5197 0.6363
vn 0.7390 0.6737 0.0000
vn 0.5701 0.5197 -0.6363
vn 0.3439 0.6906 0.6363
vn 0.4457 0.8952 0.0000
vn 0.3439 0.6906 -0.6363
vn 0.0712 0.7682 0.6363
vn 0.0923 0.9957 0.0000
vn 0.0712 0.7682 -0.6363
vn -0.2111 0.7420 0.6363
vn -0.2737 0.9618 0.0000
vn -0.2111 0.7420 -0.6363
vn -0.4649 0.6156 0.6363
vn -0.6026 0.7980 0.0000
vn -0.4649 0.6156 -0.6363
vn -0.6559 0.4061 0.6363
vn -0.8502 0.5264 0.0000
vn -0.6559 0.4061 -0.6363
vn -0.7583 0.1418 0.6363
vn -0.9830 0.1837 0.0000
vn -0.7583 0.1418 -0.6363
vn 0.9255 0.1730 0.3369
vn 0.4978 0.0931 0.8623
vn -0.1736 -0.0324 0.9843
vn -0.1736 -0.0324 -0.9843
vn 0.4978 0.0931 -0.8623
vn 0.9255 0.1730 -0.3369
vn 0.8005 0.4957 0.3369
vn 0.4306 0.2666 0.8623
vn -0.1501 -0.0929 0.9843
vn -0.1501 -0.0929 -0.9843
vn 0.4306 0.2666 -0.8623
vn 0.8005 0.4957 -0.3369
vn 0.5674 0.7514 0.3369
vn 0.3052 0.4042 0.8623
vn -0.1064 -0.1409 0.9843
vn -0.1064 -0.1409 -0.9843
vn 0.3052 0.4042 -0.8623
vn 0.5674 0.7514 -0.3369
vn 0.2577 0.9056 0.3369
vn 0.1386 0.4871 0.8623
vn -0.0483 -0.1698 0.9843
vn -0.0483 -0.1698 -0.9843
vn 0.1386 0.4871 -0.8623
vn 0.2577 0.9056 -0.3369
vn -0.0869 0.9375 0.3369
vn -0.0467 0.5043 0.8623
vn 0.0163 -0.1758 0.9843
vn 0.0163 -0.1758 -0.9843
vn -0.0467 0.5043 -0.8623
vn -0.0869 0.9375 -0.3369
vn -0.4197 0.8428 0.3369
vn -0.2257 0.4534 0.8623
vn 0.0787 -0.1581 0.9843
vn 0.0787 -0.1581 -0.9843
vn -0.2257 0.4534 -0.8623
vn -0.4197 0.8428 -0.3369
vn -0.6958 0.6343 0.3369
vn -0.3743 0.3412 0.8623
vn 0.1305 -0.1189 0.9843
vn 0.1305 -0.1189 -0.9843
vn -0.3743 0.3412 -0.8623
vn -0.6958 0.6343 -0.3369
vn -0.8780 0.3401 0.3369
vn -0.4723 0.1830 0.8623
vn 0.1646 -0.0638 0.9843
vn 0.1646 -0.0638 -0.9843
vn -0.4723 0.1830 -0.8623
vn -0.8780 0.3401 -0.3369
vn -0.9416 0.0000 0.3369
vn -0.5065 -0.0000 0.8623
vn 0.1766 -0.0000 0.9843
vn 0.1766 0.0000 -0.9843
vn -0.5065 0.0000 -0.8623
vn -0.9416 -0.0000 -0.3369
vn -0.8780 -0.3401 0.3369
vn -0.4723 -0.1830 0.8623
vn 0.1646 0.0638 0.9843
vn 0.1646 0.0638 -0.9843
vn -0.4723 -0.1830 -0.8623
vn -0.8780 -0.3401 -0.3369
vn -0.6958 -0.6343 0.3369
vn -0.3743 -0.3412 0.8623
vn 0.1305 0.1189 0.9843
vn 0.1305 0.1189 -0.9843
vn -0.3743 -0.3412 -0.8623
vn -0.6958 -0.6343 -0.3369
vn -0.4197 -0.8428 0.3369
vn -0.2257 -0.4534 0.8623
vn 0.0787 0.1581 0.9843
vn 0.0787 0.1581 -0.9843
vn -0.2257 -0.4534 -0.8623
vn -0.4197 -0.8428 -0.3369
vn -0.0869 -0.9375 0.3369
vn -0.0467 -0.5043 0.8623
vn 0.0163 0.1758 0.9843
vn 0.0163 0.1758 -0.9843
vn -0.0467 -0.5043 -0.8623
vn -0.0869 -0.9375 -0.3369
vn 0.2577 -0.9056 0.3369
vn 0.1386 -0.4871 0.8623
vn -0.0483 0.1698 0.9843
vn -0.0483 0.1698 -0.9843
vn 0.1386 -0.4871 -0.8623
vn 0.2577 -0.9056 -0.3369
vn 0.5674 -0.7514 0.3369
vn 0.3052 -0.4042 0.8623
vn -0.1064 0.1409 0.9843
vn -0.1064 0.1409 -0.9843
vn 0.3052 -0.4042 -0.8623
vn 0.5674 -0.7514 -0.3369
vn 0.8005 -0.4957 0.3369
vn 0.4306 -0.2666 0.8623
vn -0.1501 0.0929 0.9843
vn -0.1501 0.0929 -0.9843
vn 0.4306 -0.2666 -0.8623
vn 0.8005 -0.4957 -0.3369
vn 0.9255 -0.1730 0.3369
vn 0.4978 -0.0931 0.8623
vn -0.1736 0.0324 0.9843
vn -0.1736 0.0324 -0.9843
vn 0.4978 -0.0931 -0.8623
vn 0.9255 -0.1730 -0.3369
usemtl metal
s 1
f 13/1/1 14/2/1 5/3/1 4/4/1
f 14/2/2 15/5/2 6/6/2 5/3/2
f 15/5/3 16/7/3 7/8/3 6/6/3
f 22/9/4 23/10/4 14/2/4 13/1/4
f 23/10/5 24/11/5 15/5/5 14/2/5
f 24/11/6 25/12/6 16/7/6 15/5/6
f 31/13/7 32/14/7 23/10/7 22/9/7
f 32/14/8 33/15/8 24/11/8 23/10/8
f 33/15/9 34/16/9 25/12/9 24/11/9
f 40/17/10 41/18/10 32/14/10 31/13/10
f 41/18/11 42/19/11 33/15/11 32/14/11
f 42/19/12 43/20/12 34/16/12 33/15/12
f 49/21/13 50/22/13 41/18/13 40/17/13
f 50/22/14 51/23/14 42/19/14 41/18/14
f 51/23/15 52/24/15 43/20/15 42/19/15
f 58/25/16 59/26/16 50/22/16 49/21/16
f 59/26/17 60/27/17 51/23/17 50/22/17
f 60/27/18 61/28/18 52/24/18 51/23/18
f 67/29/19 68/30/19 59/26/19 58/25/19
f 68/30/20 69/31/20 60/27/20 59/26/20
f 69/31/21 70/32/21 61/28/21 60/27/21
f 76/33/22 77/34/22 68/30/22 67/29/22
f 77/34/23 78/35/23 69/31/23 68/30/23
f 78/35/24 79/36/24 70/32/24 69/31/24
f 85/37/25 86/38/25 77/34/25 76/33/25
f 86/38/26 87/39/26 78/35/26 77/34/26
f 87/39/27 88/40/27 79/36/27 78/35/27
f 94/41/28 95/42/28 86/38/28 85/37/28
f 95/42/29 96/43/29 87/39/29 86/38/29
f 96/43/30 97/44/30 88/40/30 87/39/30
f 103/45/31 104/46/31 95/42/31 94/41/31
f 104/46/32 105/47/32 96/43/32 95/42/32
f 105/47/33 106/48/33 97/44/33 96/43/33
f 112/49/34 113/50/34 104/46/34 103/45/34
f 113/50/35 114/51/35 105/47/35 104/46/35
f 114/51/36 115/52/36 106/48/36 105/47/36
f 121/53/37 122/54/37 113/50/37 112/49/37
f 122/54/38 123/55/38 114/51/38 113/50/38
f 123/55/39 124/56/39 115/52/39 114/51/39
f 130/57/40 131/58/40 122/54/40 121/53/40
f 131/58/41 132/59/41 123/55/41 122/54/41
f 132/59/42 133/60/42 124/56/42 123/55/42
f 139/61/43 140/62/43 131/58/43 130/57/43
f 140/62/44 141/63/44 132/59/44 131/58/44
f 141/63/45 142/64/45 133/60/45 132/59/45
f 148/65/46 149/66/46 140/62/46 139/61/46
f 149/66/47 150/67/47 141/63/47 140/62/47
f 150/67/48 151/68/48 142/64/48 141/63/48
f 4/69/49 5/70/49 149/66/49 148/65/49
f 5/70/50 6/71/50 150/67/50 149/66/50
f 6/71/51 7/72/51 151/68/51 150/67/51
usemtl tire_mat
f 10/73/52 11/74/52 2/75/52 1/76/52
f 11/74/53 12/77/53 3/78/53 2/75/53
f 12/77/54 13/1/54 4/4/54 3/78/54
f 16/7/55 17/79/55 8/80/55 7/8/55
f 17/79/56 18/81/56 9/82/56 8/80/56
f 18/81/57 10/83/57 1/84/57 9/82/57
f 19/85/58 20/86/58 11/74/58 10/73/58
f 20/86/59 21/87/59 12/77/59 11/74/59
f 21/87/60 22/9/60 13/1/60 12/77/60
f 25/12/61 26/88/61 17/79/61 16/7/61
f 26/88/62 27/89/62 18/81/62 17/79/62
f 27/89/63 19/90/63 10/83/63 18/81/63
f 28/91/64 29/92/64 20/86/64 19/85/64
f 29/92/65 30/93/65 21/87/65 20/86/65
f 30/93/66 31/13/66 22/9/66 21/87/66
f 34/16/67 35/94/67 26/88/67 25/12/67
f 35/94/68 36/95/68 27/89/68 26/88/68
f 36/95/69 28/96/69 19/90/69 27/89/69
f 37/97/70 38/98/70 29/92/70 28/91/70
f 38/98/71 39/99/71 30/93/71 29/92/71
f 39/99/72 40/17/72 31/13/72 30/93/72
f 43/20/73 44/100/73 35/94/73 34/16/73
f 44/100/74 45/101/74 36/95/74 35/94/74
f 45/101/75 37/102/75 28/96/75 36/95/75
f 46/103/76 47/104/76 38/98/76 37/97/76
f 47/104/77 48/105/77 39/99/77 38/98/77
f 48/105/78 49/21/78 40/17/78 39/99/78
f 52/24/79 53/106/79 44/100/79 43/20/79
f 53/106/80 54/107/80 45/101/80 44/100/80
f 54/107/81 46/108/81 37/102/81 45/101/81
f 55/109/82 56/110/82 47/104/82 46/103/82
f 56/110/83 57/111/83 48/105/83 47/104/83
f 57/111/84 58/25/84 49/21/84 48/105/84
f 61/28/85 62/112/85 53/106/85 52/24/85
f 62/112/86 63/113/86 54/107/86 53/106/86
f 63/113/87 55/114/87 46/108/87 54/107/87
f 64/115/88 65/116/88 56/110/88 55/109/88
f 65/116/89 66/117/89 57/111/89 56/110/89
f 66/117/90 67/29/90 58/25/90 57/111/90
f 70/32/91 71/118/91 62/112/91 61/28/91
f 71/118/92 72/119/92 63/113/92 62/112/92
f 72/119/93 64/120/93 55/114/93 63/113/93
f 73/121/94 74/122/94 65/116/94 64/115/94
f 74/122/95 75/123/95 66/117/95 65/116/95
f 75/123/96 76/33/96 67/29/96 66/117/96
f 79/36/97 80/124/97 71/118/97 70/32/97
f 80/124/98 81/125/98 72/119/98 71/118/98
f 81/125/99 73/126/99 64/120/99 72/119/99
f 82/127/100 83/128/100 74/122/100 73/121/100
f 83/128/101 84/129/101 75/123/101 74/122/101
f 84/129/102 85/37/102 76/33/102 75/123/102
f 88/40/103 89/130/103 80/124/103 79/36/103
f 89/130/104 90/131/104 81/125/104 80/124/104
f 90/131/105 82/132/105 73/126/105 81/125/105
f 91/133/106 92/134/106 83/128/106 82/127/106
f 92/134/107 93/135/107 84/129/107 83/128/107
f 93/135/108 94/41/108 85/37/108 84/129/108
f 97/44/109 98/136/109 89/130/109 88/40/109
f 98/136/110 99/137/110 90/131/110 89/130/110
f 99/137/111 91/138/111 82/132/111 90/131/111
f 100/139/112 101/140/112 92/134/112 91/133/112
f 101/140/113 102/141/113 93/135/113 92/134/113
f 102/141/114 103/45/114 94/41/114 93/135/114
f 106/48/115 107/142/115 98/136/115 97/44/115
f 107/142/116 108/143/116 99/137/116 98/136/116
f 108/143/117 100/144/117 91/138/117 99/137/117
f 109/145/118 110/146/118 101/140/118 100/139/118
f 110/146/119 111/147/119 102/141/119 101/140/119
f 111/147/120 112/49/120 103/45/120 102/141/120
f 115/52/121 116/148/121 107/142/121 106/48/121
f 116/148/122 117/149/122 108/143/122 107/142/122
f 117/149/123 109/150/123 100/144/123 108/143/123
f 118/151/124 119/152/124 110/146/124 109/145/124
f 119/152/125 120/153/125 111/147/125 110/146/125
f 120/153/126 121/53/126 112/49/126 111/147/126
f 124/56/127 125/154/127 116/148/127 115/52/127
f 125/154/128 126/155/128 117/149/128 116/148/128
f 126/155/129 118/156/129 109/150/129 117/149/129
f 127/157/130 128/158/130 119/152/130 118/151/130
f 128/158/131 129/159/131 120/153/131 119/152/131
f 129/159/132 130/57/132 121/53/132 120/153/132
f 133/60/133 134/160/133 125/154/133 124/56/133
f 134/160/134 135/161/134 126/155/134 125/154/134
f 135/161/135 127/162/135 118/156/135 126/155/135
f 136/163/136 137/164/136 128/158/136 127/157/136
f 137/164/137 138/165/137 129/159/137 128/158/137
f 138/165/138 139/61/138 130/57/138 129/159/138
f 142/64/139 143/166/139 134/160/139 133/60/139
f 143/166/140 144/167/140 135/161/140 134/160/140
f 144/167/141 136/168/141 127/162/141 135/161/141
f 145/169/142 146/170/142 137/164/142 136/163/142
f 146/170/143 147/171/143 138/165/143 137/164/143
f 147/171/144 148/65/144 139/61/144 138/165/144
f 151/68/145 152/172/145 143/166/145 142/64/145
f 152/172/146 153/173/146 144/167/146 143/166/146
f 153/173/147 145/174/147 136/168/147 144/167/147
f 1/175/148 2/176/148 146/170/148 145/169/148
f 2/176/149 3/177/149 147/171/149 146/170/149
f 3/177/150 4/69/150 148/65/150 147/171/150
f 7/72/151 8/178/151 152/172/151 151/68/151
f 8/178/152 9/179/152 153/173/152 152/172/152
f 9/179/153 1/180/153 145/174/153 153/173/153
